<?xml version="1.0" encoding="UTF-8"?>
<svg width="43px" height="34px" viewBox="0 0 43 34" version="1.1" xmlns="http://www.w3.org/2000/svg" xmlns:xlink="http://www.w3.org/1999/xlink">
    <!-- Generator: Sketch 50.2 (55047) - http://www.bohemiancoding.com/sketch -->
    <title>Group 5</title>
    <desc>Created with Sketch.</desc>
    <defs></defs>
    <g id="Symbols" stroke="none" stroke-width="1" fill="none" fill-rule="evenodd">
        <g id="Icon-Copy-11" transform="translate(0.000000, -5.000000)">
            <g id="Group-5" transform="translate(0.000000, 5.000000)">
                <rect id="Rectangle-15" fill="#FC6D26" x="0" y="0" width="43" height="34" rx="2"></rect>
                <g id="Group" transform="translate(6.000000, 12.000000)" fill="#FCBA29">
                    <g id="Group-2">
                        <path d="M12.5182355,4.92454739 L11.816458,7.0743877 L10.4256355,11.335236 C10.3540962,11.5544412 10.0425082,11.5544412 9.97093499,11.335236 L8.58007851,7.0743877 L3.96160243,7.0743877 L2.57071197,11.335236 C2.49917271,11.5544412 2.18758473,11.5544412 2.1160115,11.335236 L0.725188965,7.0743877 L0.0234454346,4.92454739 C-0.0405901906,4.72845907 0.029557,4.51364741 0.197115754,4.39245252 L6.27082348,0 L12.3445652,4.39245252 C12.5121239,4.51364741 12.5822372,4.72845907 12.5182355,4.92454739" id="path46" fill-rule="nonzero" transform="translate(6.270833, 5.749820) scale(1, -1) translate(-6.270833, -5.749820) "></path>
                        <rect id="Rectangle-Copy" x="16" y="1" width="17" height="3" rx="1.5"></rect>
                        <rect id="Rectangle-Copy-2" x="16" y="7" width="9" height="3" rx="1.5"></rect>
                    </g>
                </g>
                <g id="Group-4">
                    <path d="M2,0 L41,0 C42.1045695,-2.02906125e-16 43,0.8954305 43,2 L43,6 L0,6 L0,2 C-1.3527075e-16,0.8954305 0.8954305,2.02906125e-16 2,0 Z" id="Rectangle-15-Copy" fill="#E24329"></path>
                    <g id="Group-3" transform="translate(3.000000, 2.000000)" fill="#FCBA29">
                        <circle id="Oval-7" cx="1" cy="1" r="1"></circle>
                        <circle id="Oval-7-Copy" cx="5" cy="1" r="1"></circle>
                        <circle id="Oval-7-Copy-2" cx="9" cy="1" r="1"></circle>
                    </g>
                </g>
            </g>
        </g>
    </g>
</svg>